root://eosuser.cern.ch//eos/user/d/dshope/forCAFExample/xAOD_Example/mc/CAFxAOD_wjetsSkimming_bkg_X_Vgamma_Wgamma_evg_301887_s_group.phys-higgs.301887.e4452_s2726_r7725_r7676_p3042.11391600.PAOD_2L._000146.pool.root
root://eosuser.cern.ch//eos/user/d/dshope/forCAFExample/xAOD_Example/mc/CAFxAOD_wjetsSkimming_bkg_X_Vgamma_Wgamma_evg_301890_s_group.phys-higgs.301890.e3952_s2608_s2183_r7725_r7676_p3042.11391600.PAOD_2L._000.root
root://eosuser.cern.ch//eos/user/d/dshope/forCAFExample/xAOD_Example/mc/CAFxAOD_wjetsSkimming_bkg_X_Vgamma_Wgamma_evg_301891_s_group.phys-higgs.301891.e3952_s2608_s2183_r7725_r7676_p3042.11391600.PAOD_2L._000057.pool.root
root://eosuser.cern.ch//eos/user/d/dshope/forCAFExample/xAOD_Example/mc/CAFxAOD_wjetsSkimming_bkg_X_Vgamma_Wgamma_evg_301892_s_group.phys-higgs.301892.e3952_s2608_s2183_r7725_r7676_p3042.11391600.PAOD_2L._000009.pool.root
root://eosuser.cern.ch//eos/user/d/dshope/forCAFExample/xAOD_Example/mc/CAFxAOD_wjetsSkimming_bkg_X_Vgamma_Wgamma_mvg_301888_s_group.phys-higgs.301888.e4452_s2608_s2183_r7725_r7676_p3042.11391600.PAOD_2L._00005.root
root://eosuser.cern.ch//eos/user/d/dshope/forCAFExample/xAOD_Example/mc/CAFxAOD_wjetsSkimming_bkg_X_Vgamma_Wgamma_mvg_301893_s_group.phys-higgs.301893.e3952_s2608_s2183_r7725_r7676_p3042.11391600.PAOD_2L._000263.pool.root
root://eosuser.cern.ch//eos/user/d/dshope/forCAFExample/xAOD_Example/mc/CAFxAOD_wjetsSkimming_bkg_X_Vgamma_Wgamma_mvg_301894_s_group.phys-higgs.301894.e3952_s2608_s2183_r7725_r7676_p3042.11391600.PAOD_2L._000010.pool.root
root://eosuser.cern.ch//eos/user/d/dshope/forCAFExample/xAOD_Example/mc/CAFxAOD_wjetsSkimming_bkg_X_Vgamma_Wgamma_mvg_301895_s_group.phys-higgs.301895.e3952_s2608_s2183_r7725_r7676_p3042.11391600.PAOD_2L._000011.pool.root
root://eosuser.cern.ch//eos/user/d/dshope/forCAFExample/xAOD_Example/mc/CAFxAOD_wjetsSkimming_bkg_X_Vgamma_Wgamma_tvg_301889_s_group.phys-higgs.301889.e4452_s2608_s2183_r7725_r7676_p3042.11391600.PAOD_2L._00002.root
root://eosuser.cern.ch//eos/user/d/dshope/forCAFExample/xAOD_Example/mc/CAFxAOD_wjetsSkimming_bkg_X_Vgamma_Wgamma_tvg_301896_s_group.phys-higgs.301896.e3952_s2608_s2183_r7725_r7676_p3042.11391600.PAOD_2L._000030.pool.root
root://eosuser.cern.ch//eos/user/d/dshope/forCAFExample/xAOD_Example/mc/CAFxAOD_wjetsSkimming_bkg_X_Vgamma_Wgamma_tvg_301897_s_group.phys-higgs.301897.e3952_s2608_s2183_r7725_r7676_p3042.11391600.PAOD_2L._000031.pool.root
root://eosuser.cern.ch//eos/user/d/dshope/forCAFExample/xAOD_Example/mc/CAFxAOD_wjetsSkimming_bkg_X_Vgamma_Wgamma_tvg_301898_s_group.phys-higgs.301898.e3952_s2608_s2183_r7725_r7676_p3042.11391600.PAOD_2L._000032.pool.root
root://eosuser.cern.ch//eos/user/d/dshope/forCAFExample/xAOD_Example/mc/CAFxAOD_wjetsSkimming_bkg_X_Vgamma_Zgamma_eeg_301535_s_group.phys-higgs.301535.e3952_s2608_s2183_r7725_r7676_p3042.11391600.PAOD_2L._0000.root
root://eosuser.cern.ch//eos/user/d/dshope/forCAFExample/xAOD_Example/mc/CAFxAOD_wjetsSkimming_bkg_X_Vgamma_Zgamma_eeg_301899_s_group.phys-higgs.301899.e3952_s2608_s2183_r7725_r7676_p3042.11391600.PAOD_2L._000147.pool.root
root://eosuser.cern.ch//eos/user/d/dshope/forCAFExample/xAOD_Example/mc/CAFxAOD_wjetsSkimming_bkg_X_Vgamma_Zgamma_eeg_301900_s_group.phys-higgs.301900.e3952_s2608_s2183_r7725_r7676_p3042.11391600.PAOD_2L._000111.pool.root
root://eosuser.cern.ch//eos/user/d/dshope/forCAFExample/xAOD_Example/mc/CAFxAOD_wjetsSkimming_bkg_X_Vgamma_Zgamma_eeg_301901_s_group.phys-higgs.301901.e3952_s2608_s2183_r7725_r7676_p3042.11391600.PAOD_2L._000112.pool.root
root://eosuser.cern.ch//eos/user/d/dshope/forCAFExample/xAOD_Example/mc/CAFxAOD_wjetsSkimming_bkg_X_Vgamma_Zgamma_mmg_301536_s.part0_group.phys-higgs.301536.e3952_s2608_s2183_r7725_r7676_p3042.11391600.PAOD_2L._000.root
root://eosuser.cern.ch//eos/user/d/dshope/forCAFExample/xAOD_Example/mc/CAFxAOD_wjetsSkimming_bkg_X_Vgamma_Zgamma_mmg_301536_s.part1_group.phys-higgs.301536.e3952_s2608_s2183_r7725_r7676_p3042.11391600.PAOD_2L._000213.pool.root
root://eosuser.cern.ch//eos/user/d/dshope/forCAFExample/xAOD_Example/mc/CAFxAOD_wjetsSkimming_bkg_X_Vgamma_Zgamma_mmg_301902_s_group.phys-higgs.301902.e3952_s2608_s2183_r7725_r7676_p3042.11391600.PAOD_2L._000227.pool.root
root://eosuser.cern.ch//eos/user/d/dshope/forCAFExample/xAOD_Example/mc/CAFxAOD_wjetsSkimming_bkg_X_Vgamma_Zgamma_mmg_301903_s_group.phys-higgs.301903.e3952_s2608_s2183_r7725_r7676_p3042.11391600.PAOD_2L._000113.pool.root
root://eosuser.cern.ch//eos/user/d/dshope/forCAFExample/xAOD_Example/mc/CAFxAOD_wjetsSkimming_bkg_X_Vgamma_Zgamma_mmg_301904_s_group.phys-higgs.301904.e3952_s2608_s2183_r7725_r7676_p3042.11391600.PAOD_2L._000114.pool.root
root://eosuser.cern.ch//eos/user/d/dshope/forCAFExample/xAOD_Example/mc/CAFxAOD_wjetsSkimming_bkg_X_Vgamma_Zgamma_ttg_301905_s_group.phys-higgs.301905.e3952_s2608_s2183_r7725_r7676_p3042.11391600.PAOD_2L._000208.pool.root
root://eosuser.cern.ch//eos/user/d/dshope/forCAFExample/xAOD_Example/mc/CAFxAOD_wjetsSkimming_bkg_X_Vgamma_Zgamma_ttg_301906_s_group.phys-higgs.301906.e3952_s2608_s2183_r7725_r7676_p3042.11391600.PAOD_2L._000188.pool.root
root://eosuser.cern.ch//eos/user/d/dshope/forCAFExample/xAOD_Example/mc/CAFxAOD_wjetsSkimming_bkg_X_Vgamma_Zgamma_ttg_301907_s_group.phys-higgs.301907.e3952_s2608_s2183_r7725_r7676_p3042.11391600.PAOD_2L._0002.root
root://eosuser.cern.ch//eos/user/d/dshope/forCAFExample/xAOD_Example/mc/CAFxAOD_wjetsSkimming_bkg_X_Vgamma_Zgamma_ttg_304776_s_group.phys-higgs.304776.e4687_s2726_r7725_r7676_p3042.11391600.PAOD_2L._000187.pool.root
root://eosuser.cern.ch//eos/user/d/dshope/forCAFExample/xAOD_Example/mc/CAFxAOD_wjetsSkimming_bkg_X_Zjets_Alpgen_ee_361700_s.part0_group.phys-higgs.361700.e4721_s2726_r7772_r7676_p3042.11391606.PAOD_2L._00008.root
root://eosuser.cern.ch//eos/user/d/dshope/forCAFExample/xAOD_Example/mc/CAFxAOD_wjetsSkimming_bkg_X_Zjets_Alpgen_ee_361700_s.part1_group.phys-higgs.361700.e4721_s2726_r7772_r7676_p3042.11391606.PAOD_2L._000.root
root://eosuser.cern.ch//eos/user/d/dshope/forCAFExample/xAOD_Example/mc/CAFxAOD_wjetsSkimming_bkg_X_Zjets_Alpgen_ee_361701_s.part0_group.phys-higgs.361701.e4721_s2726_r7772_r7676_p3042.11391606.PAOD_2L._000155.pool.root
root://eosuser.cern.ch//eos/user/d/dshope/forCAFExample/xAOD_Example/mc/CAFxAOD_wjetsSkimming_bkg_X_Zjets_Alpgen_ee_361701_s.part1_group.phys-higgs.361701.e4721_s2726_r7772_r7676_p3042.11391606.PAOD_2L._000156.pool.root
root://eosuser.cern.ch//eos/user/d/dshope/forCAFExample/xAOD_Example/mc/CAFxAOD_wjetsSkimming_bkg_X_Zjets_Alpgen_ee_361701_s.part2_group.phys-higgs.361701.e4721_s2726_r7772_r7676_p3042.11391606.PAOD_2L._000157.pool.root
root://eosuser.cern.ch//eos/user/d/dshope/forCAFExample/xAOD_Example/mc/CAFxAOD_wjetsSkimming_bkg_X_Zjets_Alpgen_ee_361702_s.part0_group.phys-higgs.361702.e4721_s2726_r7772_r7676_p3042.11391606.PAOD_2L._00006.root
root://eosuser.cern.ch//eos/user/d/dshope/forCAFExample/xAOD_Example/mc/CAFxAOD_wjetsSkimming_bkg_X_Zjets_Alpgen_ee_361702_s.part1_group.phys-higgs.361702.e4721_s2726_r7772_r7676_p3042.11391606.PAOD_2L._000064.pool.root
root://eosuser.cern.ch//eos/user/d/dshope/forCAFExample/xAOD_Example/mc/CAFxAOD_wjetsSkimming_bkg_X_Zjets_Alpgen_ee_361703_s_group.phys-higgs.361703.e4721_s2726_r7772_r7676_p3042.11391606.PAOD_2L._0001.root
root://eosuser.cern.ch//eos/user/d/dshope/forCAFExample/xAOD_Example/mc/CAFxAOD_wjetsSkimming_bkg_X_Zjets_Alpgen_ee_361704_s_group.phys-higgs.361704.e4721_s2726_r7772_r7676_p3042.11391606.PAOD_2L._000.root
root://eosuser.cern.ch//eos/user/d/dshope/forCAFExample/xAOD_Example/mc/CAFxAOD_wjetsSkimming_bkg_X_Zjets_Alpgen_ee_361705_s_group.phys-higgs.361705.e4721_s2726_r7772_r7676_p3042.11391606.PAOD_2L._000207.pool.root
root://eosuser.cern.ch//eos/user/d/dshope/forCAFExample/xAOD_Example/mc/CAFxAOD_wjetsSkimming_bkg_X_Zjets_Alpgen_ee_361730_s_group.phys-higgs.361730.e4915_s2726_r7772_r7676_p3042.11391606.PAOD_2L._000128.pool.root
root://eosuser.cern.ch//eos/user/d/dshope/forCAFExample/xAOD_Example/mc/CAFxAOD_wjetsSkimming_bkg_X_Zjets_Alpgen_ee_361731_s_group.phys-higgs.361731.e4915_s2726_r7772_r7676_p3042.11391606.PAOD_2L._000215.pool.root
root://eosuser.cern.ch//eos/user/d/dshope/forCAFExample/xAOD_Example/mc/CAFxAOD_wjetsSkimming_bkg_X_Zjets_Alpgen_ee_361732_s_group.phys-higgs.361732.e4915_s2726_r7772_r7676_p3042.11391606.PAOD_2L._0000.root
root://eosuser.cern.ch//eos/user/d/dshope/forCAFExample/xAOD_Example/mc/CAFxAOD_wjetsSkimming_bkg_X_Zjets_Alpgen_ee_361733_s_group.phys-higgs.361733.e4915_s2726_r7772_r7676_p3042.11391606.PAOD_2L._000182.pool.root
root://eosuser.cern.ch//eos/user/d/dshope/forCAFExample/xAOD_Example/mc/CAFxAOD_wjetsSkimming_bkg_X_Zjets_Alpgen_ee_361735_s_group.phys-higgs.361735.e4915_s2726_r7772_r7676_p3042.11391606.PAOD_2L._000012.pool.root
root://eosuser.cern.ch//eos/user/d/dshope/forCAFExample/xAOD_Example/mc/CAFxAOD_wjetsSkimming_bkg_X_Zjets_Alpgen_ee_361736_s_group.phys-higgs.361736.e4915_s2726_r7772_r7676_p3042.11391606.PAOD_2L._000126.pool.root
root://eosuser.cern.ch//eos/user/d/dshope/forCAFExample/xAOD_Example/mc/CAFxAOD_wjetsSkimming_bkg_X_Zjets_Alpgen_ee_361737_s_group.phys-higgs.361737.e4915_s2726_r7772_r7676_p3042.11391606.PAOD_2L._000068.pool.root
root://eosuser.cern.ch//eos/user/d/dshope/forCAFExample/xAOD_Example/mc/CAFxAOD_wjetsSkimming_bkg_X_Zjets_Alpgen_ee_361738_s_group.phys-higgs.361738.e4915_s2726_r7772_r7676_p3042.11391606.PAOD_2L._000069.pool.root
root://eosuser.cern.ch//eos/user/d/dshope/forCAFExample/xAOD_Example/mc/CAFxAOD_wjetsSkimming_bkg_X_Zjets_Alpgen_mm_361710_s.part0_group.phys-higgs.361710.e4721_s2726_r7772_r7676_p3042.11391606.PAOD_2L._000.root
root://eosuser.cern.ch//eos/user/d/dshope/forCAFExample/xAOD_Example/mc/CAFxAOD_wjetsSkimming_bkg_X_Zjets_Alpgen_mm_361710_s.part1_group.phys-higgs.361710.e4721_s2726_r7772_r7676_p3042.11391606.PAOD_2L._000159.pool.root
root://eosuser.cern.ch//eos/user/d/dshope/forCAFExample/xAOD_Example/mc/CAFxAOD_wjetsSkimming_bkg_X_Zjets_Alpgen_mm_361711_s.part0_group.phys-higgs.361711.e4721_s2726_r7772_r7676_p3042.11391606.PAOD_2L._000083.pool.root
root://eosuser.cern.ch//eos/user/d/dshope/forCAFExample/xAOD_Example/mc/CAFxAOD_wjetsSkimming_bkg_X_Zjets_Alpgen_mm_361711_s.part1_group.phys-higgs.361711.e4721_s2726_r7772_r7676_p3042.11391606.PAOD_2L._000084.pool.root
root://eosuser.cern.ch//eos/user/d/dshope/forCAFExample/xAOD_Example/mc/CAFxAOD_wjetsSkimming_bkg_X_Zjets_Alpgen_mm_361711_s.part2_group.phys-higgs.361711.e4721_s2726_r7772_r7676_p3042.11391606.PAOD_2L._000143.pool.root
root://eosuser.cern.ch//eos/user/d/dshope/forCAFExample/xAOD_Example/mc/CAFxAOD_wjetsSkimming_bkg_X_Zjets_Alpgen_mm_361712_s.part0_group.phys-higgs.361712.e4721_s2726_r7772_r7676_p3042.11391606.PAOD_2L._000160.pool.root
root://eosuser.cern.ch//eos/user/d/dshope/forCAFExample/xAOD_Example/mc/CAFxAOD_wjetsSkimming_bkg_X_Zjets_Alpgen_mm_361712_s.part1_group.phys-higgs.361712.e4721_s2726_r7772_r7676_p3042.11391606.PAOD_2L._000161.pool.root
root://eosuser.cern.ch//eos/user/d/dshope/forCAFExample/xAOD_Example/mc/CAFxAOD_wjetsSkimming_bkg_X_Zjets_Alpgen_mm_361713_s_group.phys-higgs.361713.e4721_s2726_r7772_r7676_p3042.11391606.PAOD_2L._000.root
root://eosuser.cern.ch//eos/user/d/dshope/forCAFExample/xAOD_Example/mc/CAFxAOD_wjetsSkimming_bkg_X_Zjets_Alpgen_mm_361714_s_group.phys-higgs.361714.e4721_s2726_r7772_r7676_p3042.11391606.PAOD_2L._000090.pool.root
root://eosuser.cern.ch//eos/user/d/dshope/forCAFExample/xAOD_Example/mc/CAFxAOD_wjetsSkimming_bkg_X_Zjets_Alpgen_mm_361715_s_group.phys-higgs.361715.e4721_s2726_r7772_r7676_p3042.11391606.PAOD_2L._000163.pool.root
root://eosuser.cern.ch//eos/user/d/dshope/forCAFExample/xAOD_Example/mc/CAFxAOD_wjetsSkimming_bkg_X_Zjets_Alpgen_mm_361740_s_group.phys-higgs.361740.e4915_s2726_r7772_r7676_p3042.11391606.PAOD_2L._000140.pool.root
root://eosuser.cern.ch//eos/user/d/dshope/forCAFExample/xAOD_Example/mc/CAFxAOD_wjetsSkimming_bkg_X_Zjets_Alpgen_mm_361741_s_group.phys-higgs.361741.e4915_s2726_r7772_r7676_p3042.11391606.PAOD_2L._000013.pool.root
root://eosuser.cern.ch//eos/user/d/dshope/forCAFExample/xAOD_Example/mc/CAFxAOD_wjetsSkimming_bkg_X_Zjets_Alpgen_mm_361742_s_group.phys-higgs.361742.e4915_s2726_r7772_r7676_p3042.11391606.PAOD_2L._000022.pool.root
root://eosuser.cern.ch//eos/user/d/dshope/forCAFExample/xAOD_Example/mc/CAFxAOD_wjetsSkimming_bkg_X_Zjets_Alpgen_mm_361743_s_group.phys-higgs.361743.e4915_s2726_r7772_r7676_p3042.11391606.PAOD_2L._000185.pool.root
root://eosuser.cern.ch//eos/user/d/dshope/forCAFExample/xAOD_Example/mc/CAFxAOD_wjetsSkimming_bkg_X_Zjets_Alpgen_mm_361745_s_group.phys-higgs.361745.e4915_s2726_r7772_r7676_p3042.11391606.PAOD_2L._00022.root
root://eosuser.cern.ch//eos/user/d/dshope/forCAFExample/xAOD_Example/mc/CAFxAOD_wjetsSkimming_bkg_X_Zjets_Alpgen_mm_361746_s_group.phys-higgs.361746.e4915_s2726_r7772_r7676_p3042.11391606.PAOD_2L._000226.pool.root
root://eosuser.cern.ch//eos/user/d/dshope/forCAFExample/xAOD_Example/mc/CAFxAOD_wjetsSkimming_bkg_X_Zjets_Alpgen_mm_361747_s_group.phys-higgs.361747.e4915_s2726_r7772_r7676_p3042.11391606.PAOD_2L._000082.pool.root
root://eosuser.cern.ch//eos/user/d/dshope/forCAFExample/xAOD_Example/mc/CAFxAOD_wjetsSkimming_bkg_X_Zjets_Alpgen_mm_361748_s_group.phys-higgs.361748.e4915_s2726_r7772_r7676_p3042.11391606.PAOD_2L._000081.pool.root
root://eosuser.cern.ch//eos/user/d/dshope/forCAFExample/xAOD_Example/mc/CAFxAOD_wjetsSkimming_bkg_X_Zjets_Alpgen_tt_361720_s_group.phys-higgs.361720.e4788_s2726_r7772_r7676_p3042.11391606.PAOD_2L._0001.root
root://eosuser.cern.ch//eos/user/d/dshope/forCAFExample/xAOD_Example/mc/CAFxAOD_wjetsSkimming_bkg_X_Zjets_Alpgen_tt_361721_s_group.phys-higgs.361721.e4721_s2726_r7772_r7676_p3042.11391606.PAOD_2L._000.root
root://eosuser.cern.ch//eos/user/d/dshope/forCAFExample/xAOD_Example/mc/CAFxAOD_wjetsSkimming_bkg_X_Zjets_Alpgen_tt_361722_s_group.phys-higgs.361722.e4721_s2726_r7772_r7676_p3042.11391606.PAOD_2L._000.root
root://eosuser.cern.ch//eos/user/d/dshope/forCAFExample/xAOD_Example/mc/CAFxAOD_wjetsSkimming_bkg_X_Zjets_Alpgen_tt_361723_s_group.phys-higgs.361723.e4721_s2726_r7772_r7676_p3042.11391606.PAOD_2L._000092.pool.root
root://eosuser.cern.ch//eos/user/d/dshope/forCAFExample/xAOD_Example/mc/CAFxAOD_wjetsSkimming_bkg_X_Zjets_Alpgen_tt_361724_s_group.phys-higgs.361724.e4721_s2726_r7772_r7676_p3042.11391606.PAOD_2L._00019.root
root://eosuser.cern.ch//eos/user/d/dshope/forCAFExample/xAOD_Example/mc/CAFxAOD_wjetsSkimming_bkg_X_Zjets_Alpgen_tt_361725_s_group.phys-higgs.361725.e4721_s2726_r7772_r7676_p3042.11391606.PAOD_2L._000066.pool.root
root://eosuser.cern.ch//eos/user/d/dshope/forCAFExample/xAOD_Example/mc/CAFxAOD_wjetsSkimming_bkg_X_Zjets_Alpgen_tt_361750_s_group.phys-higgs.361750.e4915_s2726_r7772_r7676_p3042.11391606.PAOD_2L._000080.pool.root
root://eosuser.cern.ch//eos/user/d/dshope/forCAFExample/xAOD_Example/mc/CAFxAOD_wjetsSkimming_bkg_X_Zjets_Alpgen_tt_361751_s_group.phys-higgs.361751.e4915_s2726_r7772_r7676_p3042.11391606.PAOD_2L._000135.pool.root
root://eosuser.cern.ch//eos/user/d/dshope/forCAFExample/xAOD_Example/mc/CAFxAOD_wjetsSkimming_bkg_X_Zjets_Alpgen_tt_361752_s_group.phys-higgs.361752.e4915_s2726_r7772_r7676_p3042.11391606.PAOD_2L._000034.pool.root
root://eosuser.cern.ch//eos/user/d/dshope/forCAFExample/xAOD_Example/mc/CAFxAOD_wjetsSkimming_bkg_X_Zjets_Alpgen_tt_361753_s_group.phys-higgs.361753.e4915_s2726_r7772_r7676_p3042.11391606.PAOD_2L._000205.pool.root
root://eosuser.cern.ch//eos/user/d/dshope/forCAFExample/xAOD_Example/mc/CAFxAOD_wjetsSkimming_bkg_X_Zjets_Alpgen_tt_361755_s_group.phys-higgs.361755.e4915_s2726_r7772_r7676_p3042.11391606.PAOD_2L._000076.pool.root
root://eosuser.cern.ch//eos/user/d/dshope/forCAFExample/xAOD_Example/mc/CAFxAOD_wjetsSkimming_bkg_X_Zjets_Alpgen_tt_361756_s_group.phys-higgs.361756.e4915_s2726_r7772_r7676_p3042.11391606.PAOD_2L._0001.root
root://eosuser.cern.ch//eos/user/d/dshope/forCAFExample/xAOD_Example/mc/CAFxAOD_wjetsSkimming_bkg_X_Zjets_Alpgen_tt_361757_s_group.phys-higgs.361757.e4915_s2726_r7772_r7676_p3042.11391606.PAOD_2L._000213.pool.root
root://eosuser.cern.ch//eos/user/d/dshope/forCAFExample/xAOD_Example/mc/CAFxAOD_wjetsSkimming_bkg_X_Zjets_Alpgen_tt_361758_s_group.phys-higgs.361758.e4915_s2726_r7772_r7676_p3042.11391606.PAOD_2L._000040.pool.root
root://eosuser.cern.ch//eos/user/d/dshope/forCAFExample/xAOD_Example/mc/CAFxAOD_wjetsSkimming_bkg_X_Zjets_Powheg_ee_361106_s.part0_group.phys-higgs.361106.e3601_s2576_s2132_r7725_r7676_p3042.11391609.PAOD_2L._00001.root
root://eosuser.cern.ch//eos/user/d/dshope/forCAFExample/xAOD_Example/mc/CAFxAOD_wjetsSkimming_bkg_X_Zjets_Powheg_ee_361106_s.part10_group.phys-higgs.361106.e3601_s2576_s2132_r7725_r7676_p3042.11391609.PAOD_2L._000157.pool.root
root://eosuser.cern.ch//eos/user/d/dshope/forCAFExample/xAOD_Example/mc/CAFxAOD_wjetsSkimming_bkg_X_Zjets_Powheg_ee_361106_s.part11_group.phys-higgs.361106.e3601_s2576_s2132_r7725_r7676_p3042.11391609.PAOD_2L._000160.pool.root
root://eosuser.cern.ch//eos/user/d/dshope/forCAFExample/xAOD_Example/mc/CAFxAOD_wjetsSkimming_bkg_X_Zjets_Powheg_ee_361106_s.part12_group.phys-higgs.361106.e3601_s2576_s2132_r7725_r7676_p3042.11391609.PAOD_2L._000161.pool.root
root://eosuser.cern.ch//eos/user/d/dshope/forCAFExample/xAOD_Example/mc/CAFxAOD_wjetsSkimming_bkg_X_Zjets_Powheg_ee_361106_s.part13_group.phys-higgs.361106.e3601_s2576_s2132_r7725_r7676_p3042.11391609.PAOD_2L._00016.root
root://eosuser.cern.ch//eos/user/d/dshope/forCAFExample/xAOD_Example/mc/CAFxAOD_wjetsSkimming_bkg_X_Zjets_Powheg_ee_361106_s.part14_group.phys-higgs.361106.e3601_s2576_s2132_r7725_r7676_p3042.11391609.PAOD_2L._000165.pool.root
root://eosuser.cern.ch//eos/user/d/dshope/forCAFExample/xAOD_Example/mc/CAFxAOD_wjetsSkimming_bkg_X_Zjets_Powheg_ee_361106_s.part15_group.phys-higgs.361106.e3601_s2576_s2132_r7725_r7676_p3042.11391609.PAOD_2L._0001.root
root://eosuser.cern.ch//eos/user/d/dshope/forCAFExample/xAOD_Example/mc/CAFxAOD_wjetsSkimming_bkg_X_Zjets_Powheg_ee_361106_s.part16_group.phys-higgs.361106.e3601_s2576_s2132_r7725_r7676_p3042.11391609.PAOD_2L._0001.root
root://eosuser.cern.ch//eos/user/d/dshope/forCAFExample/xAOD_Example/mc/CAFxAOD_wjetsSkimming_bkg_X_Zjets_Powheg_ee_361106_s.part17_group.phys-higgs.361106.e3601_s2576_s2132_r7725_r7676_p3042.11391609.PAOD_2L._00020.root
root://eosuser.cern.ch//eos/user/d/dshope/forCAFExample/xAOD_Example/mc/CAFxAOD_wjetsSkimming_bkg_X_Zjets_Powheg_ee_361106_s.part18_group.phys-higgs.361106.e3601_s2576_s2132_r7725_r7676_p3042.11391609.PAOD_2L._000214.pool.root
root://eosuser.cern.ch//eos/user/d/dshope/forCAFExample/xAOD_Example/mc/CAFxAOD_wjetsSkimming_bkg_X_Zjets_Powheg_ee_361106_s.part19_group.phys-higgs.361106.e3601_s2576_s2132_r7725_r7676_p3042.11391609.PAOD_2L._0002.root
root://eosuser.cern.ch//eos/user/d/dshope/forCAFExample/xAOD_Example/mc/CAFxAOD_wjetsSkimming_bkg_X_Zjets_Powheg_ee_361106_s.part1_group.phys-higgs.361106.e3601_s2576_s2132_r7725_r7676_p3042.11391609.PAOD_2L._000017.pool.root
root://eosuser.cern.ch//eos/user/d/dshope/forCAFExample/xAOD_Example/mc/CAFxAOD_wjetsSkimming_bkg_X_Zjets_Powheg_ee_361106_s.part20_group.phys-higgs.361106.e3601_s2576_s2132_r7725_r7676_p3042.11391609.PAOD_2L._000221.pool.root
root://eosuser.cern.ch//eos/user/d/dshope/forCAFExample/xAOD_Example/mc/CAFxAOD_wjetsSkimming_bkg_X_Zjets_Powheg_ee_361106_s.part21_group.phys-higgs.361106.e3601_s2576_s2132_r7725_r7676_p3042.11391609.PAOD_2L._000222.pool.root
root://eosuser.cern.ch//eos/user/d/dshope/forCAFExample/xAOD_Example/mc/CAFxAOD_wjetsSkimming_bkg_X_Zjets_Powheg_ee_361106_s.part22_group.phys-higgs.361106.e3601_s2576_s2132_r7725_r7676_p3042.11391609.PAOD_2L._000223.pool.root
root://eosuser.cern.ch//eos/user/d/dshope/forCAFExample/xAOD_Example/mc/CAFxAOD_wjetsSkimming_bkg_X_Zjets_Powheg_ee_361106_s.part23_group.phys-higgs.361106.e3601_s2576_s2132_r7725_r7676_p3042.11391609.PAOD_2L._00022.root
root://eosuser.cern.ch//eos/user/d/dshope/forCAFExample/xAOD_Example/mc/CAFxAOD_wjetsSkimming_bkg_X_Zjets_Powheg_ee_361106_s.part24_group.phys-higgs.361106.e3601_s2576_s2132_r7725_r7676_p3042.11391609.PAOD_2L._000240.pool.root
root://eosuser.cern.ch//eos/user/d/dshope/forCAFExample/xAOD_Example/mc/CAFxAOD_wjetsSkimming_bkg_X_Zjets_Powheg_ee_361106_s.part25_group.phys-higgs.361106.e3601_s2576_s2132_r7725_r7676_p3042.11391609.PAOD_2L._00024.root
root://eosuser.cern.ch//eos/user/d/dshope/forCAFExample/xAOD_Example/mc/CAFxAOD_wjetsSkimming_bkg_X_Zjets_Powheg_ee_361106_s.part26_group.phys-higgs.361106.e3601_s2576_s2132_r7725_r7676_p3042.11391609.PAOD_2L._000.root
root://eosuser.cern.ch//eos/user/d/dshope/forCAFExample/xAOD_Example/mc/CAFxAOD_wjetsSkimming_bkg_X_Zjets_Powheg_ee_361106_s.part2_group.phys-higgs.361106.e3601_s2576_s2132_r7725_r7676_p3042.11391609.PAOD_2L._000086.pool.root
root://eosuser.cern.ch//eos/user/d/dshope/forCAFExample/xAOD_Example/mc/CAFxAOD_wjetsSkimming_bkg_X_Zjets_Powheg_ee_361106_s.part3_group.phys-higgs.361106.e3601_s2576_s2132_r7725_r7676_p3042.11391609.PAOD_2L._000087.pool.root
root://eosuser.cern.ch//eos/user/d/dshope/forCAFExample/xAOD_Example/mc/CAFxAOD_wjetsSkimming_bkg_X_Zjets_Powheg_ee_361106_s.part4_group.phys-higgs.361106.e3601_s2576_s2132_r7725_r7676_p3042.11391609.PAOD_2L._000088.pool.root
root://eosuser.cern.ch//eos/user/d/dshope/forCAFExample/xAOD_Example/mc/CAFxAOD_wjetsSkimming_bkg_X_Zjets_Powheg_ee_361106_s.part5_group.phys-higgs.361106.e3601_s2576_s2132_r7725_r7676_p3042.11391609.PAOD_2L._000089.pool.root
root://eosuser.cern.ch//eos/user/d/dshope/forCAFExample/xAOD_Example/mc/CAFxAOD_wjetsSkimming_bkg_X_Zjets_Powheg_ee_361106_s.part6_group.phys-higgs.361106.e3601_s2576_s2132_r7725_r7676_p3042.11391609.PAOD_2L._0001.root
root://eosuser.cern.ch//eos/user/d/dshope/forCAFExample/xAOD_Example/mc/CAFxAOD_wjetsSkimming_bkg_X_Zjets_Powheg_ee_361106_s.part7_group.phys-higgs.361106.e3601_s2576_s2132_r7725_r7676_p3042.11391609.PAOD_2L._000147.pool.root
root://eosuser.cern.ch//eos/user/d/dshope/forCAFExample/xAOD_Example/mc/CAFxAOD_wjetsSkimming_bkg_X_Zjets_Powheg_ee_361106_s.part8_group.phys-higgs.361106.e3601_s2576_s2132_r7725_r7676_p3042.11391609.PAOD_2L._000151.pool.root
root://eosuser.cern.ch//eos/user/d/dshope/forCAFExample/xAOD_Example/mc/CAFxAOD_wjetsSkimming_bkg_X_Zjets_Powheg_ee_361106_s.part9_group.phys-higgs.361106.e3601_s2576_s2132_r7725_r7676_p3042.11391609.PAOD_2L._000156.pool.root
root://eosuser.cern.ch//eos/user/d/dshope/forCAFExample/xAOD_Example/mc/CAFxAOD_wjetsSkimming_bkg_X_Zjets_Powheg_mm_361107_s.part0_group.phys-higgs.361107.e3601_s2576_s2132_r7725_r7676_p3042.11391609.PAOD_2L._00007.root
root://eosuser.cern.ch//eos/user/d/dshope/forCAFExample/xAOD_Example/mc/CAFxAOD_wjetsSkimming_bkg_X_Zjets_Powheg_mm_361107_s.part10_group.phys-higgs.361107.e3601_s2576_s2132_r7725_r7676_p3042.11391609.PAOD_2L._000206.pool.root
root://eosuser.cern.ch//eos/user/d/dshope/forCAFExample/xAOD_Example/mc/CAFxAOD_wjetsSkimming_bkg_X_Zjets_Powheg_mm_361107_s.part11_group.phys-higgs.361107.e3601_s2576_s2132_r7725_r7676_p3042.11391609.PAOD_2L._0002.root
root://eosuser.cern.ch//eos/user/d/dshope/forCAFExample/xAOD_Example/mc/CAFxAOD_wjetsSkimming_bkg_X_Zjets_Powheg_mm_361107_s.part12_group.phys-higgs.361107.e3601_s2576_s2132_r7725_r7676_p3042.11391609.PAOD_2L._000230.pool.root
root://eosuser.cern.ch//eos/user/d/dshope/forCAFExample/xAOD_Example/mc/CAFxAOD_wjetsSkimming_bkg_X_Zjets_Powheg_mm_361107_s.part13_group.phys-higgs.361107.e3601_s2576_s2132_r7725_r7676_p3042.11391609.PAOD_2L._000231.pool.root
root://eosuser.cern.ch//eos/user/d/dshope/forCAFExample/xAOD_Example/mc/CAFxAOD_wjetsSkimming_bkg_X_Zjets_Powheg_mm_361107_s.part14_group.phys-higgs.361107.e3601_s2576_s2132_r7725_r7676_p3042.11391609.PAOD_2L._000233.pool.root
root://eosuser.cern.ch//eos/user/d/dshope/forCAFExample/xAOD_Example/mc/CAFxAOD_wjetsSkimming_bkg_X_Zjets_Powheg_mm_361107_s.part15_group.phys-higgs.361107.e3601_s2576_s2132_r7725_r7676_p3042.11391609.PAOD_2L._00023.root
root://eosuser.cern.ch//eos/user/d/dshope/forCAFExample/xAOD_Example/mc/CAFxAOD_wjetsSkimming_bkg_X_Zjets_Powheg_mm_361107_s.part16_group.phys-higgs.361107.e3601_s2576_s2132_r7725_r7676_p3042.11391609.PAOD_2L._000257.pool.root
root://eosuser.cern.ch//eos/user/d/dshope/forCAFExample/xAOD_Example/mc/CAFxAOD_wjetsSkimming_bkg_X_Zjets_Powheg_mm_361107_s.part17_group.phys-higgs.361107.e3601_s2576_s2132_r7725_r7676_p3042.11391609.PAOD_2L._000258.pool.root
root://eosuser.cern.ch//eos/user/d/dshope/forCAFExample/xAOD_Example/mc/CAFxAOD_wjetsSkimming_bkg_X_Zjets_Powheg_mm_361107_s.part18_group.phys-higgs.361107.e3601_s2576_s2132_r7725_r7676_p3042.11391609.PAOD_2L._000259.pool.root
root://eosuser.cern.ch//eos/user/d/dshope/forCAFExample/xAOD_Example/mc/CAFxAOD_wjetsSkimming_bkg_X_Zjets_Powheg_mm_361107_s.part19_group.phys-higgs.361107.e3601_s2576_s2132_r7725_r7676_p3042.11391609.PAOD_2L._000260.pool.root
root://eosuser.cern.ch//eos/user/d/dshope/forCAFExample/xAOD_Example/mc/CAFxAOD_wjetsSkimming_bkg_X_Zjets_Powheg_mm_361107_s.part1_group.phys-higgs.361107.e3601_s2576_s2132_r7725_r7676_p3042.11391609.PAOD_2L._000073.pool.root
root://eosuser.cern.ch//eos/user/d/dshope/forCAFExample/xAOD_Example/mc/CAFxAOD_wjetsSkimming_bkg_X_Zjets_Powheg_mm_361107_s.part20_group.phys-higgs.361107.e3601_s2576_s2132_r7725_r7676_p3042.11391609.PAOD_2L._000261.pool.root
root://eosuser.cern.ch//eos/user/d/dshope/forCAFExample/xAOD_Example/mc/CAFxAOD_wjetsSkimming_bkg_X_Zjets_Powheg_mm_361107_s.part21_group.phys-higgs.361107.e3601_s2576_s2132_r7725_r7676_p3042.11391609.PAOD_2L._000262.pool.root
root://eosuser.cern.ch//eos/user/d/dshope/forCAFExample/xAOD_Example/mc/CAFxAOD_wjetsSkimming_bkg_X_Zjets_Powheg_mm_361107_s.part22_group.phys-higgs.361107.e3601_s2576_s2132_r7725_r7676_p3042.11391609.PAOD_2L._0002.root
root://eosuser.cern.ch//eos/user/d/dshope/forCAFExample/xAOD_Example/mc/CAFxAOD_wjetsSkimming_bkg_X_Zjets_Powheg_mm_361107_s.part23_group.phys-higgs.361107.e3601_s2576_s2132_r7725_r7676_p3042.11391609.PAOD_2L._000271.pool.root
root://eosuser.cern.ch//eos/user/d/dshope/forCAFExample/xAOD_Example/mc/CAFxAOD_wjetsSkimming_bkg_X_Zjets_Powheg_mm_361107_s.part24_group.phys-higgs.361107.e3601_s2576_s2132_r7725_r7676_p3042.11391609.PAOD_2L._000272.pool.root
root://eosuser.cern.ch//eos/user/d/dshope/forCAFExample/xAOD_Example/mc/CAFxAOD_wjetsSkimming_bkg_X_Zjets_Powheg_mm_361107_s.part25_group.phys-higgs.361107.e3601_s2576_s2132_r7725_r7676_p3042.11391609.PAOD_2L._00027.root
root://eosuser.cern.ch//eos/user/d/dshope/forCAFExample/xAOD_Example/mc/CAFxAOD_wjetsSkimming_bkg_X_Zjets_Powheg_mm_361107_s.part26_group.phys-higgs.361107.e3601_s2576_s2132_r7725_r7676_p3042.11391609.PAOD_2L._00028.root
root://eosuser.cern.ch//eos/user/d/dshope/forCAFExample/xAOD_Example/mc/CAFxAOD_wjetsSkimming_bkg_X_Zjets_Powheg_mm_361107_s.part27_group.phys-higgs.361107.e3601_s2576_s2132_r7725_r7676_p3042.11391609.PAOD_2L._00028.root
root://eosuser.cern.ch//eos/user/d/dshope/forCAFExample/xAOD_Example/mc/CAFxAOD_wjetsSkimming_bkg_X_Zjets_Powheg_mm_361107_s.part2_group.phys-higgs.361107.e3601_s2576_s2132_r7725_r7676_p3042.11391609.PAOD_2L._00007.root
root://eosuser.cern.ch//eos/user/d/dshope/forCAFExample/xAOD_Example/mc/CAFxAOD_wjetsSkimming_bkg_X_Zjets_Powheg_mm_361107_s.part3_group.phys-higgs.361107.e3601_s2576_s2132_r7725_r7676_p3042.11391609.PAOD_2L._00008.root
root://eosuser.cern.ch//eos/user/d/dshope/forCAFExample/xAOD_Example/mc/CAFxAOD_wjetsSkimming_bkg_X_Zjets_Powheg_mm_361107_s.part4_group.phys-higgs.361107.e3601_s2576_s2132_r7725_r7676_p3042.11391609.PAOD_2L._00008.root
root://eosuser.cern.ch//eos/user/d/dshope/forCAFExample/xAOD_Example/mc/CAFxAOD_wjetsSkimming_bkg_X_Zjets_Powheg_mm_361107_s.part5_group.phys-higgs.361107.e3601_s2576_s2132_r7725_r7676_p3042.11391609.PAOD_2L._00011.root
root://eosuser.cern.ch//eos/user/d/dshope/forCAFExample/xAOD_Example/mc/CAFxAOD_wjetsSkimming_bkg_X_Zjets_Powheg_mm_361107_s.part6_group.phys-higgs.361107.e3601_s2576_s2132_r7725_r7676_p3042.11391609.PAOD_2L._000124.pool.root
root://eosuser.cern.ch//eos/user/d/dshope/forCAFExample/xAOD_Example/mc/CAFxAOD_wjetsSkimming_bkg_X_Zjets_Powheg_mm_361107_s.part7_group.phys-higgs.361107.e3601_s2576_s2132_r7725_r7676_p3042.11391609.PAOD_2L._000199.pool.root
root://eosuser.cern.ch//eos/user/d/dshope/forCAFExample/xAOD_Example/mc/CAFxAOD_wjetsSkimming_bkg_X_Zjets_Powheg_mm_361107_s.part8_group.phys-higgs.361107.e3601_s2576_s2132_r7725_r7676_p3042.11391609.PAOD_2L._00020.root
root://eosuser.cern.ch//eos/user/d/dshope/forCAFExample/xAOD_Example/mc/CAFxAOD_wjetsSkimming_bkg_X_Zjets_Powheg_mm_361107_s.part9_group.phys-higgs.361107.e3601_s2576_s2132_r7725_r7676_p3042.11391609.PAOD_2L._000205.pool.root
root://eosuser.cern.ch//eos/user/d/dshope/forCAFExample/xAOD_Example/mc/CAFxAOD_wjetsSkimming_bkg_X_Zjets_Powheg_tt_361108_s_group.phys-higgs.361108.e3601_s2726_r7725_r7676_p3042.11391609.PAOD_2L._000.root
root://eosuser.cern.ch//eos/user/d/dshope/forCAFExample/xAOD_Example/mc/CAFxAOD_wjetsSkimming_bkg_X_Zjets_Sherpa2p2p1_ee_364114_s.part0_group.phys-higgs.364114.e5299_s2726_r7772_r7676_p3042.11391603.PAOD_2L._000338.pool.root
root://eosuser.cern.ch//eos/user/d/dshope/forCAFExample/xAOD_Example/mc/CAFxAOD_wjetsSkimming_bkg_X_Zjets_Sherpa2p2p1_ee_364114_s.part1_group.phys-higgs.364114.e5299_s2726_r7772_r7676_p3042.11391603.PAOD_2L._000339.pool.root
root://eosuser.cern.ch//eos/user/d/dshope/forCAFExample/xAOD_Example/mc/CAFxAOD_wjetsSkimming_bkg_X_Zjets_Sherpa2p2p1_ee_364114_s.part2_group.phys-higgs.364114.e5299_s2726_r7772_r7676_p3042.11391603.PAOD_2L._000340.pool.root
root://eosuser.cern.ch//eos/user/d/dshope/forCAFExample/xAOD_Example/mc/CAFxAOD_wjetsSkimming_bkg_X_Zjets_Sherpa2p2p1_ee_364115_s.part0_group.phys-higgs.364115.e5299_s2726_r7772_r7676_p3042.11391603.PAOD_2L._000514.pool.root
root://eosuser.cern.ch//eos/user/d/dshope/forCAFExample/xAOD_Example/mc/CAFxAOD_wjetsSkimming_bkg_X_Zjets_Sherpa2p2p1_ee_364115_s.part1_group.phys-higgs.364115.e5299_s2726_r7772_r7676_p3042.11391603.PAOD_2L._000515.pool.root
root://eosuser.cern.ch//eos/user/d/dshope/forCAFExample/xAOD_Example/mc/CAFxAOD_wjetsSkimming_bkg_X_Zjets_Sherpa2p2p1_ee_364116_s.part0_group.phys-higgs.364116.e5299_s2726_r7772_r7676_p3042.11391603.PAOD_2L._000475.pool.root
root://eosuser.cern.ch//eos/user/d/dshope/forCAFExample/xAOD_Example/mc/CAFxAOD_wjetsSkimming_bkg_X_Zjets_Sherpa2p2p1_ee_364116_s.part1_group.phys-higgs.364116.e5299_s2726_r7772_r7676_p3042.11391603.PAOD_2L._000476.pool.root
root://eosuser.cern.ch//eos/user/d/dshope/forCAFExample/xAOD_Example/mc/CAFxAOD_wjetsSkimming_bkg_X_Zjets_Sherpa2p2p1_ee_364116_s.part2_group.phys-higgs.364116.e5299_s2726_r7772_r7676_p3042.11391603.PAOD_2L._000477.pool.root
root://eosuser.cern.ch//eos/user/d/dshope/forCAFExample/xAOD_Example/mc/CAFxAOD_wjetsSkimming_bkg_X_Zjets_Sherpa2p2p1_ee_364116_s.part3_group.phys-higgs.364116.e5299_s2726_r7772_r7676_p3042.11391603.PAOD_2L._000492.pool.root
root://eosuser.cern.ch//eos/user/d/dshope/forCAFExample/xAOD_Example/mc/CAFxAOD_wjetsSkimming_bkg_X_Zjets_Sherpa2p2p1_ee_364117_s.part0_group.phys-higgs.364117.e5299_s2726_r7772_r7676_p3042.11391603.PAOD_2L._000453.pool.root
root://eosuser.cern.ch//eos/user/d/dshope/forCAFExample/xAOD_Example/mc/CAFxAOD_wjetsSkimming_bkg_X_Zjets_Sherpa2p2p1_ee_364117_s.part1_group.phys-higgs.364117.e5299_s2726_r7772_r7676_p3042.11391603.PAOD_2L._000454.pool.root
root://eosuser.cern.ch//eos/user/d/dshope/forCAFExample/xAOD_Example/mc/CAFxAOD_wjetsSkimming_bkg_X_Zjets_Sherpa2p2p1_ee_364117_s.part2_group.phys-higgs.364117.e5299_s2726_r7772_r7676_p3042.11391603.PAOD_2L._000516.pool.root
root://eosuser.cern.ch//eos/user/d/dshope/forCAFExample/xAOD_Example/mc/CAFxAOD_wjetsSkimming_bkg_X_Zjets_Sherpa2p2p1_ee_364117_s.part3_group.phys-higgs.364117.e5299_s2726_r7772_r7676_p3042.11391603.PAOD_2L._000517.pool.root
root://eosuser.cern.ch//eos/user/d/dshope/forCAFExample/xAOD_Example/mc/CAFxAOD_wjetsSkimming_bkg_X_Zjets_Sherpa2p2p1_ee_364118_s_group.phys-higgs.364118.e5299_s2726_r7772_r7676_p3042.11391603.PAOD_2L._00034.root
root://eosuser.cern.ch//eos/user/d/dshope/forCAFExample/xAOD_Example/mc/CAFxAOD_wjetsSkimming_bkg_X_Zjets_Sherpa2p2p1_ee_364119_s.part0_group.phys-higgs.364119.e5299_s2726_r7772_r7676_p3042.11391603.PAOD_2L._000451.pool.root
root://eosuser.cern.ch//eos/user/d/dshope/forCAFExample/xAOD_Example/mc/CAFxAOD_wjetsSkimming_bkg_X_Zjets_Sherpa2p2p1_ee_364119_s.part1_group.phys-higgs.364119.e5299_s2726_r7772_r7676_p3042.11391603.PAOD_2L._000452.pool.root
root://eosuser.cern.ch//eos/user/d/dshope/forCAFExample/xAOD_Example/mc/CAFxAOD_wjetsSkimming_bkg_X_Zjets_Sherpa2p2p1_ee_364119_s.part2_group.phys-higgs.364119.e5299_s2726_r7772_r7676_p3042.11391603.PAOD_2L._000511.pool.root
root://eosuser.cern.ch//eos/user/d/dshope/forCAFExample/xAOD_Example/mc/CAFxAOD_wjetsSkimming_bkg_X_Zjets_Sherpa2p2p1_ee_364119_s.part3_group.phys-higgs.364119.e5299_s2726_r7772_r7676_p3042.11391603.PAOD_2L._000512.pool.root
root://eosuser.cern.ch//eos/user/d/dshope/forCAFExample/xAOD_Example/mc/CAFxAOD_wjetsSkimming_bkg_X_Zjets_Sherpa2p2p1_ee_364120_s.part0_group.phys-higgs.364120.e5299_s2726_r7772_r7676_p3042.11391603.PAOD_2L._000449.pool.root
root://eosuser.cern.ch//eos/user/d/dshope/forCAFExample/xAOD_Example/mc/CAFxAOD_wjetsSkimming_bkg_X_Zjets_Sherpa2p2p1_ee_364120_s.part1_group.phys-higgs.364120.e5299_s2726_r7772_r7676_p3042.11391603.PAOD_2L._000450.pool.root
root://eosuser.cern.ch//eos/user/d/dshope/forCAFExample/xAOD_Example/mc/CAFxAOD_wjetsSkimming_bkg_X_Zjets_Sherpa2p2p1_ee_364120_s.part2_group.phys-higgs.364120.e5299_s2726_r7772_r7676_p3042.11391603.PAOD_2L._000518.pool.root
root://eosuser.cern.ch//eos/user/d/dshope/forCAFExample/xAOD_Example/mc/CAFxAOD_wjetsSkimming_bkg_X_Zjets_Sherpa2p2p1_ee_364121_s.part0_group.phys-higgs.364121.e5299_s2726_r7772_r7676_p3042.11391603.PAOD_2L._000333.pool.root
root://eosuser.cern.ch//eos/user/d/dshope/forCAFExample/xAOD_Example/mc/CAFxAOD_wjetsSkimming_bkg_X_Zjets_Sherpa2p2p1_ee_364121_s.part1_group.phys-higgs.364121.e5299_s2726_r7772_r7676_p3042.11391603.PAOD_2L._000334.pool.root
root://eosuser.cern.ch//eos/user/d/dshope/forCAFExample/xAOD_Example/mc/CAFxAOD_wjetsSkimming_bkg_X_Zjets_Sherpa2p2p1_ee_364122_s.part0_group.phys-higgs.364122.e5299_s2726_r7772_r7676_p3042.11391603.PAOD_2L._000428.pool.root
root://eosuser.cern.ch//eos/user/d/dshope/forCAFExample/xAOD_Example/mc/CAFxAOD_wjetsSkimming_bkg_X_Zjets_Sherpa2p2p1_ee_364122_s.part1_group.phys-higgs.364122.e5299_s2726_r7772_r7676_p3042.11391603.PAOD_2L._0004.root
root://eosuser.cern.ch//eos/user/d/dshope/forCAFExample/xAOD_Example/mc/CAFxAOD_wjetsSkimming_bkg_X_Zjets_Sherpa2p2p1_ee_364122_s.part2_group.phys-higgs.364122.e5299_s2726_r7772_r7676_p3042.11391603.PAOD_2L._000442.pool.root
root://eosuser.cern.ch//eos/user/d/dshope/forCAFExample/xAOD_Example/mc/CAFxAOD_wjetsSkimming_bkg_X_Zjets_Sherpa2p2p1_ee_364122_s.part3_group.phys-higgs.364122.e5299_s2726_r7772_r7676_p3042.11391603.PAOD_2L._000443.pool.root
root://eosuser.cern.ch//eos/user/d/dshope/forCAFExample/xAOD_Example/mc/CAFxAOD_wjetsSkimming_bkg_X_Zjets_Sherpa2p2p1_ee_364122_s.part4_group.phys-higgs.364122.e5299_s2726_r7772_r7676_p3042.11391603.PAOD_2L._000445.pool.root
root://eosuser.cern.ch//eos/user/d/dshope/forCAFExample/xAOD_Example/mc/CAFxAOD_wjetsSkimming_bkg_X_Zjets_Sherpa2p2p1_ee_364122_s.part5_group.phys-higgs.364122.e5299_s2726_r7772_r7676_p3042.11391603.PAOD_2L._000446.pool.root
root://eosuser.cern.ch//eos/user/d/dshope/forCAFExample/xAOD_Example/mc/CAFxAOD_wjetsSkimming_bkg_X_Zjets_Sherpa2p2p1_ee_364122_s.part6_group.phys-higgs.364122.e5299_s2726_r7772_r7676_p3042.11391603.PAOD_2L._000447.pool.root
root://eosuser.cern.ch//eos/user/d/dshope/forCAFExample/xAOD_Example/mc/CAFxAOD_wjetsSkimming_bkg_X_Zjets_Sherpa2p2p1_ee_364122_s.part7_group.phys-higgs.364122.e5299_s2726_r7772_r7676_p3042.11391603.PAOD_2L._000448.pool.root
root://eosuser.cern.ch//eos/user/d/dshope/forCAFExample/xAOD_Example/mc/CAFxAOD_wjetsSkimming_bkg_X_Zjets_Sherpa2p2p1_ee_364123_s.part0_group.phys-higgs.364123.e5299_s2726_r7772_r7676_p3042.11391603.PAOD_2L._000444.pool.root
root://eosuser.cern.ch//eos/user/d/dshope/forCAFExample/xAOD_Example/mc/CAFxAOD_wjetsSkimming_bkg_X_Zjets_Sherpa2p2p1_ee_364123_s.part1_group.phys-higgs.364123.e5299_s2726_r7772_r7676_p3042.11391603.PAOD_2L._000501.pool.root
root://eosuser.cern.ch//eos/user/d/dshope/forCAFExample/xAOD_Example/mc/CAFxAOD_wjetsSkimming_bkg_X_Zjets_Sherpa2p2p1_ee_364124_s_group.phys-higgs.364124.e5299_s2726_r7772_r7676_p3042.11391603.PAOD_2L._000347.pool.root
root://eosuser.cern.ch//eos/user/d/dshope/forCAFExample/xAOD_Example/mc/CAFxAOD_wjetsSkimming_bkg_X_Zjets_Sherpa2p2p1_ee_364125_s.part0_group.phys-higgs.364125.e5299_s2726_r7772_r7676_p3042.11391603.PAOD_2L._000569.pool.root
root://eosuser.cern.ch//eos/user/d/dshope/forCAFExample/xAOD_Example/mc/CAFxAOD_wjetsSkimming_bkg_X_Zjets_Sherpa2p2p1_ee_364125_s.part1_group.phys-higgs.364125.e5299_s2726_r7772_r7676_p3042.11391603.PAOD_2L._000570.pool.root
root://eosuser.cern.ch//eos/user/d/dshope/forCAFExample/xAOD_Example/mc/CAFxAOD_wjetsSkimming_bkg_X_Zjets_Sherpa2p2p1_ee_364126_s.part0_group.phys-higgs.364126.e5299_s2726_r7772_r7676_p3042.11391603.PAOD_2L._000163.pool.root
root://eosuser.cern.ch//eos/user/d/dshope/forCAFExample/xAOD_Example/mc/CAFxAOD_wjetsSkimming_bkg_X_Zjets_Sherpa2p2p1_ee_364126_s.part1_group.phys-higgs.364126.e5299_s2726_r7772_r7676_p3042.11391603.PAOD_2L._000164.pool.root
root://eosuser.cern.ch//eos/user/d/dshope/forCAFExample/xAOD_Example/mc/CAFxAOD_wjetsSkimming_bkg_X_Zjets_Sherpa2p2p1_ee_364127_s_group.phys-higgs.364127.e5299_s2726_r7772_r7676_p3042.11391603.PAOD_2L._000.root
root://eosuser.cern.ch//eos/user/d/dshope/forCAFExample/xAOD_Example/mc/CAFxAOD_wjetsSkimming_bkg_X_Zjets_Sherpa2p2p1_mm_364100_s.part0_group.phys-higgs.364100.e5271_s2726_r7772_r7676_p3042.11391603.PAOD_2L._000314.pool.root
root://eosuser.cern.ch//eos/user/d/dshope/forCAFExample/xAOD_Example/mc/CAFxAOD_wjetsSkimming_bkg_X_Zjets_Sherpa2p2p1_mm_364100_s.part1_group.phys-higgs.364100.e5271_s2726_r7772_r7676_p3042.11391603.PAOD_2L._000315.pool.root
root://eosuser.cern.ch//eos/user/d/dshope/forCAFExample/xAOD_Example/mc/CAFxAOD_wjetsSkimming_bkg_X_Zjets_Sherpa2p2p1_mm_364100_s.part2_group.phys-higgs.364100.e5271_s2726_r7772_r7676_p3042.11391603.PAOD_2L._000316.pool.root
root://eosuser.cern.ch//eos/user/d/dshope/forCAFExample/xAOD_Example/mc/CAFxAOD_wjetsSkimming_bkg_X_Zjets_Sherpa2p2p1_mm_364101_s.part0_group.phys-higgs.364101.e5271_s2726_r7772_r7676_p3042.11391603.PAOD_2L._000421.pool.root
root://eosuser.cern.ch//eos/user/d/dshope/forCAFExample/xAOD_Example/mc/CAFxAOD_wjetsSkimming_bkg_X_Zjets_Sherpa2p2p1_mm_364101_s.part1_group.phys-higgs.364101.e5271_s2726_r7772_r7676_p3042.11391603.PAOD_2L._000587.pool.root
root://eosuser.cern.ch//eos/user/d/dshope/forCAFExample/xAOD_Example/mc/CAFxAOD_wjetsSkimming_bkg_X_Zjets_Sherpa2p2p1_mm_364102_s.part0_group.phys-higgs.364102.e5271_s2726_r7772_r7676_p3042.11391603.PAOD_2L._000380.pool.root
root://eosuser.cern.ch//eos/user/d/dshope/forCAFExample/xAOD_Example/mc/CAFxAOD_wjetsSkimming_bkg_X_Zjets_Sherpa2p2p1_mm_364102_s.part1_group.phys-higgs.364102.e5271_s2726_r7772_r7676_p3042.11391603.PAOD_2L._000381.pool.root
root://eosuser.cern.ch//eos/user/d/dshope/forCAFExample/xAOD_Example/mc/CAFxAOD_wjetsSkimming_bkg_X_Zjets_Sherpa2p2p1_mm_364102_s.part2_group.phys-higgs.364102.e5271_s2726_r7772_r7676_p3042.11391603.PAOD_2L._000385.pool.root
root://eosuser.cern.ch//eos/user/d/dshope/forCAFExample/xAOD_Example/mc/CAFxAOD_wjetsSkimming_bkg_X_Zjets_Sherpa2p2p1_mm_364102_s.part3_group.phys-higgs.364102.e5271_s2726_r7772_r7676_p3042.11391603.PAOD_2L._000386.pool.root
root://eosuser.cern.ch//eos/user/d/dshope/forCAFExample/xAOD_Example/mc/CAFxAOD_wjetsSkimming_bkg_X_Zjets_Sherpa2p2p1_mm_364103_s.part0_group.phys-higgs.364103.e5271_s2726_r7772_r7676_p3042.11391603.PAOD_2L._000414.pool.root
root://eosuser.cern.ch//eos/user/d/dshope/forCAFExample/xAOD_Example/mc/CAFxAOD_wjetsSkimming_bkg_X_Zjets_Sherpa2p2p1_mm_364103_s.part1_group.phys-higgs.364103.e5271_s2726_r7772_r7676_p3042.11391603.PAOD_2L._000.root
root://eosuser.cern.ch//eos/user/d/dshope/forCAFExample/xAOD_Example/mc/CAFxAOD_wjetsSkimming_bkg_X_Zjets_Sherpa2p2p1_mm_364103_s.part2_group.phys-higgs.364103.e5271_s2726_r7772_r7676_p3042.11391603.PAOD_2L._000589.pool.root
root://eosuser.cern.ch//eos/user/d/dshope/forCAFExample/xAOD_Example/mc/CAFxAOD_wjetsSkimming_bkg_X_Zjets_Sherpa2p2p1_mm_364104_s_group.phys-higgs.364104.e5271_s2726_r7772_r7676_p3042.11391603.PAOD_2L._000375.pool.root
root://eosuser.cern.ch//eos/user/d/dshope/forCAFExample/xAOD_Example/mc/CAFxAOD_wjetsSkimming_bkg_X_Zjets_Sherpa2p2p1_mm_364105_s.part0_group.phys-higgs.364105.e5271_s2726_r7772_r7676_p3042.11391603.PAOD_2L._000402.pool.root
root://eosuser.cern.ch//eos/user/d/dshope/forCAFExample/xAOD_Example/mc/CAFxAOD_wjetsSkimming_bkg_X_Zjets_Sherpa2p2p1_mm_364105_s.part1_group.phys-higgs.364105.e5271_s2726_r7772_r7676_p3042.11391603.PAOD_2L._000403.pool.root
root://eosuser.cern.ch//eos/user/d/dshope/forCAFExample/xAOD_Example/mc/CAFxAOD_wjetsSkimming_bkg_X_Zjets_Sherpa2p2p1_mm_364105_s.part2_group.phys-higgs.364105.e5271_s2726_r7772_r7676_p3042.11391603.PAOD_2L._000.root
root://eosuser.cern.ch//eos/user/d/dshope/forCAFExample/xAOD_Example/mc/CAFxAOD_wjetsSkimming_bkg_X_Zjets_Sherpa2p2p1_mm_364106_s.part0_group.phys-higgs.364106.e5271_s2726_r7772_r7676_p3042.11391603.PAOD_2L._000675.pool.root
root://eosuser.cern.ch//eos/user/d/dshope/forCAFExample/xAOD_Example/mc/CAFxAOD_wjetsSkimming_bkg_X_Zjets_Sherpa2p2p1_mm_364106_s.part1_group.phys-higgs.364106.e5271_s2726_r7772_r7676_p3042.11391603.PAOD_2L._000676.pool.root
root://eosuser.cern.ch//eos/user/d/dshope/forCAFExample/xAOD_Example/mc/CAFxAOD_wjetsSkimming_bkg_X_Zjets_Sherpa2p2p1_mm_364106_s.part2_group.phys-higgs.364106.e5271_s2726_r7772_r7676_p3042.11391603.PAOD_2L._000677.pool.root
root://eosuser.cern.ch//eos/user/d/dshope/forCAFExample/xAOD_Example/mc/CAFxAOD_wjetsSkimming_bkg_X_Zjets_Sherpa2p2p1_mm_364107_s.part0_group.phys-higgs.364107.e5271_s2726_r7772_r7676_p3042.11391603.PAOD_2L._000625.pool.root
root://eosuser.cern.ch//eos/user/d/dshope/forCAFExample/xAOD_Example/mc/CAFxAOD_wjetsSkimming_bkg_X_Zjets_Sherpa2p2p1_mm_364107_s.part1_group.phys-higgs.364107.e5271_s2726_r7772_r7676_p3042.root
root://eosuser.cern.ch//eos/user/d/dshope/forCAFExample/xAOD_Example/mc/CAFxAOD_wjetsSkimming_bkg_X_Zjets_Sherpa2p2p1_mm_364108_s.part0_group.phys-higgs.364108.e5271_s2726_r7772_r7676_p3042.11391603.PAOD_2L._000367.pool.root
root://eosuser.cern.ch//eos/user/d/dshope/forCAFExample/xAOD_Example/mc/CAFxAOD_wjetsSkimming_bkg_X_Zjets_Sherpa2p2p1_mm_364108_s.part1_group.phys-higgs.364108.e5271_s2726_r7772_r7676_p3042.11391603.PAOD_2L._000368.pool.root
root://eosuser.cern.ch//eos/user/d/dshope/forCAFExample/xAOD_Example/mc/CAFxAOD_wjetsSkimming_bkg_X_Zjets_Sherpa2p2p1_mm_364108_s.part2_group.phys-higgs.364108.e5271_s2726_r7772_r7676_p3042.11391603.PAOD_2L._000369.pool.root
root://eosuser.cern.ch//eos/user/d/dshope/forCAFExample/xAOD_Example/mc/CAFxAOD_wjetsSkimming_bkg_X_Zjets_Sherpa2p2p1_mm_364108_s.part3_group.phys-higgs.364108.e5271_s2726_r7772_r7676_p3042.11391603.PAOD_2L._000370.pool.root
root://eosuser.cern.ch//eos/user/d/dshope/forCAFExample/xAOD_Example/mc/CAFxAOD_wjetsSkimming_bkg_X_Zjets_Sherpa2p2p1_mm_364108_s.part4_group.phys-higgs.364108.e5271_s2726_r7772_r7676_p3042.11391603.PAOD_2L._000371.pool.root
root://eosuser.cern.ch//eos/user/d/dshope/forCAFExample/xAOD_Example/mc/CAFxAOD_wjetsSkimming_bkg_X_Zjets_Sherpa2p2p1_mm_364108_s.part5_group.phys-higgs.364108.e5271_s2726_r7772_r7676_p3042.11391603.PAOD_2L._000578.pool.root
root://eosuser.cern.ch//eos/user/d/dshope/forCAFExample/xAOD_Example/mc/CAFxAOD_wjetsSkimming_bkg_X_Zjets_Sherpa2p2p1_mm_364108_s.part6_group.phys-higgs.364108.e5271_s2726_r7772_r7676_p3042.11391603.PAOD_2L._0005.root
root://eosuser.cern.ch//eos/user/d/dshope/forCAFExample/xAOD_Example/mc/CAFxAOD_wjetsSkimming_bkg_X_Zjets_Sherpa2p2p1_mm_364109_s_group.phys-higgs.364109.e5271_s2726_r7772_r7676_p3042.11391603.PAOD_2L._00036.root
root://eosuser.cern.ch//eos/user/d/dshope/forCAFExample/xAOD_Example/mc/CAFxAOD_wjetsSkimming_bkg_X_Zjets_Sherpa2p2p1_mm_364110_s_group.phys-higgs.364110.e5271_s2726_r7772_r7676_p3042.11391603.PAOD_2L._000.root
root://eosuser.cern.ch//eos/user/d/dshope/forCAFExample/xAOD_Example/mc/CAFxAOD_wjetsSkimming_bkg_X_Zjets_Sherpa2p2p1_mm_364111_s_group.phys-higgs.364111.e5271_s2726_r7772_r7676_p3042.11391603.PAOD_2L._0005.root
root://eosuser.cern.ch//eos/user/d/dshope/forCAFExample/xAOD_Example/mc/CAFxAOD_wjetsSkimming_bkg_X_Zjets_Sherpa2p2p1_mm_364112_s.part0_group.phys-higgs.364112.e5271_s2726_r7772_r7676_p3042.11391603.PAOD_2L._000336.pool.root
root://eosuser.cern.ch//eos/user/d/dshope/forCAFExample/xAOD_Example/mc/CAFxAOD_wjetsSkimming_bkg_X_Zjets_Sherpa2p2p1_mm_364112_s.part1_group.phys-higgs.364112.e5271_s2726_r7772_r7676_p3042.11391603.PAOD_2L._000337.pool.root
root://eosuser.cern.ch//eos/user/d/dshope/forCAFExample/xAOD_Example/mc/CAFxAOD_wjetsSkimming_bkg_X_Zjets_Sherpa2p2p1_mm_364113_s_group.phys-higgs.364113.e5271_s2726_r7772_r7676_p3042.11391603.PAOD_2L._000.root
root://eosuser.cern.ch//eos/user/d/dshope/forCAFExample/xAOD_Example/mc/CAFxAOD_wjetsSkimming_bkg_X_Zjets_Sherpa2p2p1_tt_364128_s_group.phys-higgs.364128.e5307_s2726_r7772_r7676_p3042.11391603.PAOD_2L._00016.root
root://eosuser.cern.ch//eos/user/d/dshope/forCAFExample/xAOD_Example/mc/CAFxAOD_wjetsSkimming_bkg_X_Zjets_Sherpa2p2p1_tt_364129_s_group.phys-higgs.364129.e5307_s2726_r7772_r7676_p3042.11391603.PAOD_2L._000.root
root://eosuser.cern.ch//eos/user/d/dshope/forCAFExample/xAOD_Example/mc/CAFxAOD_wjetsSkimming_bkg_X_Zjets_Sherpa2p2p1_tt_364130_s_group.phys-higgs.364130.e5307_s2726_r7772_r7676_p3042.11391603.PAOD_2L._00005.root
root://eosuser.cern.ch//eos/user/d/dshope/forCAFExample/xAOD_Example/mc/CAFxAOD_wjetsSkimming_bkg_X_Zjets_Sherpa2p2p1_tt_364131_s_group.phys-higgs.364131.e5307_s2726_r7772_r7676_p3042.11391603.PAOD_2L._00005.root
root://eosuser.cern.ch//eos/user/d/dshope/forCAFExample/xAOD_Example/mc/CAFxAOD_wjetsSkimming_bkg_X_Zjets_Sherpa2p2p1_tt_364132_s_group.phys-higgs.364132.e5307_s2726_r7772_r7676_p3042.11391603.PAOD_2L._000056.pool.root
root://eosuser.cern.ch//eos/user/d/dshope/forCAFExample/xAOD_Example/mc/CAFxAOD_wjetsSkimming_bkg_X_Zjets_Sherpa2p2p1_tt_364133_s_group.phys-higgs.364133.e5307_s2726_r7772_r7676_p3042.11391603.PAOD_2L._000.root
root://eosuser.cern.ch//eos/user/d/dshope/forCAFExample/xAOD_Example/mc/CAFxAOD_wjetsSkimming_bkg_X_Zjets_Sherpa2p2p1_tt_364134_s_group.phys-higgs.364134.e5307_s2726_r7772_r7676_p3042.11391603.PAOD_2L._000.root
root://eosuser.cern.ch//eos/user/d/dshope/forCAFExample/xAOD_Example/mc/CAFxAOD_wjetsSkimming_bkg_X_Zjets_Sherpa2p2p1_tt_364135_s_group.phys-higgs.364135.e5307_s2726_r7772_r7676_p3042.11391603.PAOD_2L._00010.root
root://eosuser.cern.ch//eos/user/d/dshope/forCAFExample/xAOD_Example/mc/CAFxAOD_wjetsSkimming_bkg_X_Zjets_Sherpa2p2p1_tt_364136_s_group.phys-higgs.364136.e5307_s2726_r7772_r7676_p3042.11391603.PAOD_2L._000.root
root://eosuser.cern.ch//eos/user/d/dshope/forCAFExample/xAOD_Example/mc/CAFxAOD_wjetsSkimming_bkg_X_Zjets_Sherpa2p2p1_tt_364137_s_group.phys-higgs.364137.e5307_s2726_r7772_r7676_p3042.11391603.PAOD_2L._000106.pool.root
root://eosuser.cern.ch//eos/user/d/dshope/forCAFExample/xAOD_Example/mc/CAFxAOD_wjetsSkimming_bkg_X_Zjets_Sherpa2p2p1_tt_364138_s_group.phys-higgs.364138.e5313_s2726_r7772_r7676_p3042.11391603.PAOD_2L._000.root
root://eosuser.cern.ch//eos/user/d/dshope/forCAFExample/xAOD_Example/mc/CAFxAOD_wjetsSkimming_bkg_X_Zjets_Sherpa2p2p1_tt_364139_s_group.phys-higgs.364139.e5313_s2726_r7772_r7676_p3042.11391603.PAOD_2L._0001.root
root://eosuser.cern.ch//eos/user/d/dshope/forCAFExample/xAOD_Example/mc/CAFxAOD_wjetsSkimming_bkg_X_Zjets_Sherpa2p2p1_tt_364140_s_group.phys-higgs.364140.e5307_s2726_r7772_r7676_p3042.11391603.PAOD_2L._000.root
root://eosuser.cern.ch//eos/user/d/dshope/forCAFExample/xAOD_Example/mc/CAFxAOD_wjetsSkimming_bkg_X_Zjets_Sherpa2p2p1_tt_364141_s_group.phys-higgs.364141.e5307_s2726_r7772_r7676_p3042.11391603.PAOD_2L._000345.pool.root
root://eosuser.cern.ch//eos/user/d/dshope/forCAFExample/xAOD_Example/mc/CAFxAOD_wjetsSkimming_bkg_X_diboson_NonWW_Sherpa2p1_gg_ZZ_4l_HB_361073_s_group.phys-higgs.361073.e3836_s2608_s2183_r7772_r7676_p3042.11391600.PAOD_2L._000.root
root://eosuser.cern.ch//eos/user/d/dshope/forCAFExample/xAOD_Example/mc/CAFxAOD_wjetsSkimming_bkg_X_diboson_NonWW_Sherpa2p1_qq_ZZ_4l_361063_s_group.phys-higgs.361063.e3836_s2608_s2183_r7725_r7676_p3042.11391600.PAOD_2L._000.root
root://eosuser.cern.ch//eos/user/d/dshope/forCAFExample/xAOD_Example/mc/CAFxAOD_wjetsSkimming_bkg_X_diboson_NonWW_Sherpa2p1_qq_ZZ_VBS_361072_s_group.phys-higgs.361072.e3836_s2608_s2183_r7772_r7676_p3042.11391600.PAOD_2L._0002.root
root://eosuser.cern.ch//eos/user/d/dshope/forCAFExample/xAOD_Example/mc/CAFxAOD_wjetsSkimming_bkg_X_diboson_NonWW_qq_WZgammaStar_361064_s_group.phys-higgs.361064.e3836_s2608_s2183_r7725_r7676_p3042.11391600.PAOD_2L._00007.root
root://eosuser.cern.ch//eos/user/d/dshope/forCAFExample/xAOD_Example/mc/CAFxAOD_wjetsSkimming_bkg_X_diboson_NonWW_qq_WZgammaStar_361065_s_group.phys-higgs.361065.e3836_s2608_s2183_r7725_r7676_p3042.11391600.PAOD_2L._0000.root
root://eosuser.cern.ch//eos/user/d/dshope/forCAFExample/xAOD_Example/mc/CAFxAOD_wjetsSkimming_bkg_X_diboson_NonWW_qq_WZgammaStar_361066_s_group.phys-higgs.361066.e3836_s2608_s2183_r7725_r7676_p3042.11391600.PAOD_2L._000.root
root://eosuser.cern.ch//eos/user/d/dshope/forCAFExample/xAOD_Example/mc/CAFxAOD_wjetsSkimming_bkg_X_diboson_NonWW_qq_WZgammaStar_361067_s_group.phys-higgs.361067.e3836_s2608_s2183_r7725_r7676_p3042.11391600.PAOD_2L._000.root
root://eosuser.cern.ch//eos/user/d/dshope/forCAFExample/xAOD_Example/mc/CAFxAOD_wjetsSkimming_bkg_X_diboson_WW_qqWW_364254_s.part0_group.phys-higgs.364254.e5916_s2726_r7772_r7676_p3042.e5916_s2726_r7772_r7676_p3042.e5916_s2726_r7772_r7676_p3042.11391600.PAOD_2L._000359.pool.root
root://eosuser.cern.ch//eos/user/d/dshope/forCAFExample/xAOD_Example/mc/CAFxAOD_wjetsSkimming_bkg_X_diboson_WW_qqWW_364254_s.part1_group.phys-higgs.364254.e5916_s2726_r7772_r7676_p3042.e5916_s2726_r7772_r7676_p3042.e5916_s2726_r7772_r7676_p3042.11391600.PAOD_2L._000383.pool.root
root://eosuser.cern.ch//eos/user/d/dshope/forCAFExample/xAOD_Example/mc/CAFxAOD_wjetsSkimming_bkg_X_diboson_WW_qqWW_364254_s.part2_group.phys-higgs.364254.e5916_s2726_r7772_r7676_p3042.e5916_s2726_r7772_r7676_p3042.e5916_s2726_r7772_r7676_p3042.11391600.PAOD_2L._000384.pool.root
root://eosuser.cern.ch//eos/user/d/dshope/forCAFExample/xAOD_Example/mc/CAFxAOD_wjetsSkimming_bkg_X_diboson_WW_qqWW_364254_s.part3_group.phys-higgs.364254.e5916_s2726_r7772_r7676_p3042.e5916_s2726_r7772_r7676_p3042.e5916_s2726_r7772_r7676_p3042.11391600.PAOD_2L._000385.pool.root
root://eosuser.cern.ch//eos/user/d/dshope/forCAFExample/xAOD_Example/mc/CAFxAOD_wjetsSkimming_bkg_X_diboson_WW_qqWW_364254_s.part4_group.phys-higgs.364254.e5916_s2726_r7772_r7676_p3042.e5916_s2726_r7772_r7676_p3042.e5916_s2726_r7772_r7676_p3042.11391600.PAOD_2L._000386.pool.root
root://eosuser.cern.ch//eos/user/d/dshope/forCAFExample/xAOD_Example/mc/CAFxAOD_wjetsSkimming_bkg_X_diboson_WW_qqWW_364254_s.part5_group.phys-higgs.364254.e5916_s2726_r7772_r7676_p3042.e5916_s2726_r7772_r7676_p3042.e5916_s2726_r7772_r7676_p3042.11391600.PAOD_2L._00038.root
root://eosuser.cern.ch//eos/user/d/dshope/forCAFExample/xAOD_Example/mc/CAFxAOD_wjetsSkimming_bkg_X_top_singletop_Wt_410015_s_group.phys-higgs.410015.e3753_s2608_s2183_r7725_r7676_p3042.11391602.PAOD_2L._000050.pool.root
root://eosuser.cern.ch//eos/user/d/dshope/forCAFExample/xAOD_Example/mc/CAFxAOD_wjetsSkimming_bkg_X_top_singletop_Wt_410016_s_group.phys-higgs.410016.e3753_s2608_s2183_r7725_r7676_p3042.11391602.PAOD_2L._000066.pool.root
root://eosuser.cern.ch//eos/user/d/dshope/forCAFExample/xAOD_Example/mc/CAFxAOD_wjetsSkimming_bkg_X_top_singletop_tZ_410050_s_group.phys-higgs.410050.e4279_s2608_s2183_r7725_r7676_p3042.11391602.PAOD_2L._000047.pool.root
root://eosuser.cern.ch//eos/user/d/dshope/forCAFExample/xAOD_Example/mc/CAFxAOD_wjetsSkimming_bkg_X_top_ttW_410066_s_group.phys-higgs.410066.e4111_s2608_s2183_r7725_r7676_p3042.11391602.PAOD_2L._00010.root
root://eosuser.cern.ch//eos/user/d/dshope/forCAFExample/xAOD_Example/mc/CAFxAOD_wjetsSkimming_bkg_X_top_ttW_410067_s_group.phys-higgs.410067.e4111_s2608_s2183_r7725_r7676_p3042.11391602.PAOD_2L._00028.root
root://eosuser.cern.ch//eos/user/d/dshope/forCAFExample/xAOD_Example/mc/CAFxAOD_wjetsSkimming_bkg_X_top_ttW_410068_s_group.phys-higgs.410068.e4111_s2608_s2183_r7725_r7676_p3042.11391602.PAOD_2L._000075.pool.root
root://eosuser.cern.ch//eos/user/d/dshope/forCAFExample/xAOD_Example/mc/CAFxAOD_wjetsSkimming_bkg_X_top_ttZ_410069_s_group.phys-higgs.410069.e4111_s2608_s2183_r7725_r7676_p3042.11391602.PAOD_2L._000122.pool.root
root://eosuser.cern.ch//eos/user/d/dshope/forCAFExample/xAOD_Example/mc/CAFxAOD_wjetsSkimming_bkg_X_top_ttZ_410070_s_group.phys-higgs.410070.e4111_s2608_s2183_r7725_r7676_p3042.11391602.PAOD_2L._000079.pool.root
root://eosuser.cern.ch//eos/user/d/dshope/forCAFExample/xAOD_Example/mc/CAFxAOD_wjetsSkimming_bkg_X_top_ttbar_410503_s.part0_group.phys-higgs.410503.e5475_s2726_r7772_r7676_p3042.11391602.PAOD_2L._0000.root
root://eosuser.cern.ch//eos/user/d/dshope/forCAFExample/xAOD_Example/mc/CAFxAOD_wjetsSkimming_bkg_X_top_ttbar_410503_s.part10_group.phys-higgs.410503.e5475_s2726_r7772_r7676_p3042.11391602.PAOD_2L._00020.root
root://eosuser.cern.ch//eos/user/d/dshope/forCAFExample/xAOD_Example/mc/CAFxAOD_wjetsSkimming_bkg_X_top_ttbar_410503_s.part1_group.phys-higgs.410503.e5475_s2726_r7772_r7676_p3042.11391602.PAOD_2L._000085.pool.root
root://eosuser.cern.ch//eos/user/d/dshope/forCAFExample/xAOD_Example/mc/CAFxAOD_wjetsSkimming_bkg_X_top_ttbar_410503_s.part2_group.phys-higgs.410503.e5475_s2726_r7772_r7676_p3042.11391602.PAOD_2L._000092.pool.root
root://eosuser.cern.ch//eos/user/d/dshope/forCAFExample/xAOD_Example/mc/CAFxAOD_wjetsSkimming_bkg_X_top_ttbar_410503_s.part3_group.phys-higgs.410503.e5475_s2726_r7772_r7676_p3042.11391602.PAOD_2L._000093.pool.root
root://eosuser.cern.ch//eos/user/d/dshope/forCAFExample/xAOD_Example/mc/CAFxAOD_wjetsSkimming_bkg_X_top_ttbar_410503_s.part4_group.phys-higgs.410503.e5475_s2726_r7772_r7676_p3042.11391602.PAOD_2L._000094.pool.root
root://eosuser.cern.ch//eos/user/d/dshope/forCAFExample/xAOD_Example/mc/CAFxAOD_wjetsSkimming_bkg_X_top_ttbar_410503_s.part5_group.phys-higgs.410503.e5475_s2726_r7772_r7676_p3042.11391602.PAOD_2L._000095.pool.root
root://eosuser.cern.ch//eos/user/d/dshope/forCAFExample/xAOD_Example/mc/CAFxAOD_wjetsSkimming_bkg_X_top_ttbar_410503_s.part6_group.phys-higgs.410503.e5475_s2726_r7772_r7676_p3042.11391602.PAOD_2L._000130.pool.root
root://eosuser.cern.ch//eos/user/d/dshope/forCAFExample/xAOD_Example/mc/CAFxAOD_wjetsSkimming_bkg_X_top_ttbar_410503_s.part7_group.phys-higgs.410503.e5475_s2726_r7772_r7676_p3042.11391602.PAOD_2L._000131.pool.root
root://eosuser.cern.ch//eos/user/d/dshope/forCAFExample/xAOD_Example/mc/CAFxAOD_wjetsSkimming_bkg_X_top_ttbar_410503_s.part8_group.phys-higgs.410503.e5475_s2726_r7772_r7676_p3042.11391602.PAOD_2L._000132.pool.root
root://eosuser.cern.ch//eos/user/d/dshope/forCAFExample/xAOD_Example/mc/CAFxAOD_wjetsSkimming_bkg_X_top_ttbar_410503_s.part9_group.phys-higgs.410503.e5475_s2726_r7772_r7676_p3042.11391602.PAOD_2L._000133.pool.root
root://eosuser.cern.ch//eos/user/d/dshope/forCAFExample/xAOD_Example/mc/CAFxAOD_wjetsSkimming_bkg_X_triboson_WWW_361620_s_group.phys-higgs.361620.e4093_s2608_s2183_r8112_r7676_p3042.11391600.PAOD_2L._0002.root
root://eosuser.cern.ch//eos/user/d/dshope/forCAFExample/xAOD_Example/mc/CAFxAOD_wjetsSkimming_bkg_X_triboson_WWZ_361621_s_group.phys-higgs.361621.e4053_s2608_s2183_r8112_r7676_p3042.11391600.PAOD_2L._000117.pool.root
root://eosuser.cern.ch//eos/user/d/dshope/forCAFExample/xAOD_Example/mc/CAFxAOD_wjetsSkimming_bkg_X_triboson_WWZ_361622_s_group.phys-higgs.361622.e4053_s2608_s2183_r8112_r7676_p3042.11391600.PAOD_2L._000118.pool.root
root://eosuser.cern.ch//eos/user/d/dshope/forCAFExample/xAOD_Example/mc/CAFxAOD_wjetsSkimming_bkg_X_triboson_WZZ_361623_s_group.phys-higgs.361623.e4093_s2608_s2183_r8112_r7676_p3042.11391600.PAOD_2L._000218.pool.root
root://eosuser.cern.ch//eos/user/d/dshope/forCAFExample/xAOD_Example/mc/CAFxAOD_wjetsSkimming_bkg_X_triboson_WZZ_361624_s_group.phys-higgs.361624.e4093_s2608_s2183_r8112_r7676_p3042.11391600.PAOD_2L._000119.pool.root
root://eosuser.cern.ch//eos/user/d/dshope/forCAFExample/xAOD_Example/mc/CAFxAOD_wjetsSkimming_bkg_X_triboson_ZZZ_361625_s_group.phys-higgs.361625.e4093_s2608_s2183_r7772_r7676_p3042.11391600.PAOD_2L._000176.pool.root
root://eosuser.cern.ch//eos/user/d/dshope/forCAFExample/xAOD_Example/mc/CAFxAOD_wjetsSkimming_bkg_X_triboson_ZZZ_361626_s_group.phys-higgs.361626.e4093_s2608_s2183_r7772_r7676_p3042.11391600.PAOD_2L._000136.pool.root
root://eosuser.cern.ch//eos/user/d/dshope/forCAFExample/xAOD_Example/mc/CAFxAOD_wjetsSkimming_bkg_X_triboson_ZZZ_361627_s_group.phys-higgs.361627.e4093_s2608_s2183_r7772_r7676_p3042.11391600.PAOD_2L._000137.pool.root
