name    path    latex   datapath
c16a    c16a    2015+2016   c16a
c16d    c16d    2017    c16d
c16e    c16e    2018    c16e
c16ad   [c16a+c16d] 2015-2017   [c16a+c16d]
c16ae   [c16a+c16e] 2015+2016+2018  [c16a+c16e]
c16de   [c16d+c16e] 2017+2018   [c16d+c16e]
run2,?,all   [c16a+c16d+c16e]    Full~Run~2  [c16a+c16d+c16e]
